25.65685424949238,70,70,70,1
34.65685424949238,70,70,70,1
147.94717052842776,70,70,70,1
45.65685424949238,70,70,70,1
17.65685424949238,70,70,70,1
72.47213595499957,95,70,95,1
131.15427730961432,95,70,70,0
16.65685424949238,95,95,95,1
35.65685424949238,70,70,70,1
139.6066017177982,70,70,70,1
29.65685424949238,70,70,70,1
33.65685424949238,70,70,70,1
22.65685424949238,70,70,70,1
46.65685424949238,70,70,70,1
27.65685424949238,70,70,70,1
37.65685424949238,70,70,70,1
31.65685424949238,70,70,70,1
36.65685424949238,70,70,70,1
39.65685424949238,95,70,70,0
79.47213595499957,95,70,95,1
30.65685424949238,70,70,70,1
123.48528137423857,70,70,70,1
40.65685424949238,70,70,70,1
32.65685424949238,95,95,95,1
137.60331536298847,95,70,70,0
41.65685424949238,70,70,70,1
119.94974746830583,70,70,70,1
17.65685424949238,70,70,70,1
135.6958756638964,70,70,70,1
42.65685424949238,70,70,70,1
80.32455532033676,70,70,70,1
218.3468374010567,95,70,95,1
20.65685424949238,95,95,95,1
119.47213595499957,70,70,70,1
31.65685424949238,70,70,70,1
28.65685424949238,70,70,70,1
131.15427730961432,70,70,70,1
129.44258930908666,70,70,70,1
173.0336887678084,70,70,70,1
45.65685424949238,95,70,70,0
45.65685424949238,95,70,70,0
67.47213595499957,95,70,95,1
34.65685424949238,70,70,70,1
161.15427730961432,95,70,70,0
12.65685424949238,95,95,95,1
100.73876888270985,95,70,70,0
26.65685424949238,95,95,95,1
23.65685424949238,95,95,95,1
129.60331536298847,70,70,70,1
25.65685424949238,70,70,70,1
158.19717052842776,95,70,95,1
111.97213595499957,70,70,70,1
133.48528137423858,70,70,70,1
22.65685424949238,70,70,70,1
36.65685424949238,70,70,70,1
32.65685424949238,70,70,70,1
24.65685424949238,70,70,70,1
25.65685424949238,70,70,70,1
27.65685424949238,70,70,70,1
63.82842712474619,70,70,70,1
36.65685424949238,70,70,70,1
103.21110255092799,70,70,70,1
63.82842712474619,70,70,70,1
132.79942905448965,70,70,70,1
40.65685424949238,70,70,70,1
28.65685424949238,70,70,70,1
34.65685424949238,70,70,70,1
22.65685424949238,70,70,70,1
40.65685424949238,70,70,70,1
25.65685424949238,70,70,70,1
24.65685424949238,70,70,70,1
27.65685424949238,70,70,70,1
20.65685424949238,70,70,70,1
44.65685424949238,70,70,70,1
29.65685424949238,70,70,70,1
39.65685424949238,70,70,70,1
107.44587566389639,70,70,70,1
44.65685424949238,70,70,70,1
27.65685424949238,70,70,70,1
101.89949493661166,70,70,70,1
24.65685424949238,70,70,70,1
23.65685424949238,70,70,70,1
40.65685424949238,70,70,70,1
83.32455532033676,70,70,70,1
92.48528137423857,70,70,70,1
101.73876888270985,70,70,70,1
112.44587566389639,70,70,70,1
33.65685424949238,70,70,70,1
260.89284284387014,70,70,70,1
47.65685424949238,70,70,70,1
151.4792559654933,70,70,70,1
143.44717052842776,70,70,70,1
121.9464611134961,70,70,70,1
26.65685424949238,70,70,70,1
143.50547810787106,70,70,70,1
143.44258930908666,70,70,70,1
36.65685424949238,70,70,70,1
150.69258930908666,70,70,70,1
33.65685424949238,70,70,70,1
45.65685424949238,70,70,70,1
146.0016063034616,70,70,70,1
43.65685424949238,95,70,70,0
28.65685424949238,70,70,70,1
77.32455532033676,70,70,70,1
33.65685424949238,70,70,70,1
47.65685424949238,95,70,70,0
26.65685424949238,70,70,70,1
139.96015510839146,70,70,70,1
39.65685424949238,95,70,70,0
42.65685424949238,95,70,70,0
46.65685424949238,95,70,70,0
175.07455532033674,95,70,95,1
97.24264068711929,95,70,70,0
136.32455532033674,70,70,70,1
21.65685424949238,70,70,70,1
28.65685424949238,70,70,70,1
34.65685424949238,70,70,70,1
22.65685424949238,70,70,70,1
109.21110255092799,70,70,70,1
29.65685424949238,95,95,95,1
18.65685424949238,95,95,95,1
158.97538416108387,70,70,70,1
17.65685424949238,70,70,70,1
36.65685424949238,70,70,70,1
22.65685424949238,70,70,70,1
28.65685424949238,70,70,70,1
32.65685424949238,70,70,70,1
26.65685424949238,70,70,70,1
42.65685424949238,95,70,70,0
79.48528137423857,70,70,70,1
31.65685424949238,70,70,70,1
93.24264068711929,70,70,70,1
92.48528137423857,95,70,70,0
106.21110255092799,70,70,70,1
27.65685424949238,70,70,70,1
27.65685424949238,70,70,70,1
32.65685424949238,70,70,70,1
29.65685424949238,70,70,70,1
130.79942905448965,70,70,70,1
35.65685424949238,70,70,70,1
26.65685424949238,70,70,70,1
68.73876888270986,95,70,95,1
29.65685424949238,70,70,70,1
128.44258930908663,70,70,70,1
72.48528137423857,70,70,70,1
41.65685424949238,70,70,70,1
40.65685424949238,70,70,70,1
23.65685424949238,70,70,70,1
123.96015510839148,70,70,70,1
126.79942905448965,70,70,70,1
28.65685424949238,70,70,70,1
83.32455532033676,70,70,70,1
103.47213595499957,70,70,70,1
230.492143308141,95,70,95,1
26.65685424949238,70,70,70,1
143.0016063034616,70,70,70,1
26.65685424949238,70,70,70,1
131.79942905448965,70,70,70,1
18.65685424949238,70,70,70,1
142.95851193098662,95,70,95,1
46.65685424949238,95,70,70,0
121.94646111349607,70,70,70,1
144.60331536298847,95,70,70,0
14.65685424949238,70,70,70,1
174.88047810787103,95,70,95,1
37.65685424949238,70,70,70,1
39.65685424949238,95,70,70,0
126.44258930908666,70,70,70,1
30.65685424949238,70,70,70,1
47.65685424949238,95,70,70,0
39.65685424949238,70,70,70,1
23.65685424949238,70,70,70,1
45.65685424949238,95,70,70,0
36.65685424949238,70,70,70,1
122.47213595499957,70,70,70,1
33.65685424949238,70,70,70,1
72.48528137423857,70,70,70,1
66.32455532033676,70,70,70,1
41.65685424949238,70,70,70,1
9.65685424949238,70,70,70,1
22.65685424949238,70,70,70,1
16.65685424949238,70,70,70,1
158.13611021498568,70,70,70,1
36.65685424949238,70,70,70,1
19.65685424949238,70,70,70,1
65.82842712474618,70,70,70,1
64.82842712474618,70,70,70,1
35.65685424949238,70,70,70,1
125.32455532033676,70,70,70,1
128.3033008588991,70,70,70,1
29.65685424949238,70,70,70,1
26.65685424949238,70,70,70,1
22.65685424949238,70,70,70,1
75.32455532033676,70,70,70,1
29.65685424949238,70,70,70,1
36.65685424949238,70,70,70,1
36.65685424949238,70,70,70,1
177.09270576218336,70,70,70,1
49.65685424949238,70,70,70,1
42.65685424949238,70,70,70,1
40.65685424949238,70,70,70,1
169.50618752280272,70,70,70,1
20.65685424949238,70,70,70,1
30.65685424949238,70,70,70,1
33.65685424949238,70,70,70,1
28.65685424949238,70,70,70,1
124.30330085889909,70,70,70,1
76.32455532033676,70,70,70,1
19.65685424949238,95,95,95,1
17.65685424949238,95,95,95,1
30.65685424949238,95,95,95,1
38.65685424949238,70,70,70,1
135.9762057497863,70,70,70,1
19.65685424949238,70,70,70,1
30.65685424949238,70,70,70,1
13.65685424949238,95,95,95,1
122.94646111349607,70,70,70,1
17.65685424949238,95,95,95,1
76.47213595499957,70,70,70,1
25.65685424949238,70,70,70,1
24.65685424949238,70,70,70,1
113.71110255092799,95,70,95,1
66.32455532033676,70,70,70,1
22.65685424949238,70,70,70,1
32.65685424949238,95,95,95,1
130.96015510839146,70,70,70,1
36.65685424949238,70,70,70,1
31.65685424949238,70,70,70,1
187.22213595499957,95,70,95,1
170.1151384096776,70,70,70,1
23.65685424949238,70,70,70,1
121.94646111349607,70,70,70,1
14.65685424949238,70,70,70,1
169.5336887678084,70,70,70,1
138.0316621015233,70,70,70,1
32.65685424949238,70,70,70,1
35.65685424949238,70,70,70,1
121.44258930908666,70,70,70,1
93.32455532033676,95,70,70,0
29.65685424949238,70,70,70,1
17.65685424949238,70,70,70,1
39.65685424949238,70,70,70,1
36.65685424949238,70,70,70,1
21.65685424949238,70,70,70,1
42.65685424949238,95,70,70,0
111.97213595499957,95,70,95,1
130.44258930908666,95,70,70,0
106.73876888270983,95,70,70,0
138.79942905448965,70,70,70,1
18.65685424949238,70,70,70,1
32.65685424949238,70,70,70,1
42.65685424949238,95,70,70,0
31.65685424949238,70,70,70,1
24.65685424949238,95,95,95,1
98.82842712474618,95,70,70,0
38.65685424949238,95,70,70,0
35.65685424949238,70,70,70,1
21.65685424949238,70,70,70,1
131.961102550928,95,70,95,1
105.21110255092799,70,70,70,1
48.65685424949238,95,70,70,0
222.4877003920742,70,70,70,1
203.1262087543301,70,70,70,1
31.65685424949238,70,70,70,1
135.32455532033674,70,70,70,1
27.65685424949238,70,70,70,1
17.65685424949238,70,70,70,1
123.97213595499957,70,70,70,1
31.65685424949238,70,70,70,1
173.2758644635794,70,70,70,1
157.13611021498568,70,70,70,1
124.79942905448965,70,70,70,1
33.65685424949238,70,70,70,1
126.60331536298845,70,70,70,1
30.65685424949238,70,70,70,1
70.32455532033676,70,70,70,1
22.65685424949238,70,70,70,1
18.65685424949238,70,70,70,1
14.65685424949238,70,70,70,1
267.63180943979853,70,70,70,1
131.79942905448965,70,70,70,1
124.32455532033676,70,70,70,1
153.97538416108387,70,70,70,1
36.65685424949238,70,70,70,1
32.65685424949238,70,70,70,1
27.65685424949238,70,70,70,1
44.65685424949238,70,70,70,1
136.70820393249937,70,70,70,1
29.65685424949238,70,70,70,1
37.65685424949238,70,70,70,1
30.65685424949238,70,70,70,1
35.65685424949238,70,70,70,1
38.65685424949238,70,70,70,1
36.65685424949238,70,70,70,1
134.7688641042792,70,70,70,1
41.65685424949238,70,70,70,1
30.65685424949238,70,70,70,1
37.65685424949238,70,70,70,1
129.47213595499957,70,70,70,1
105.44587566389639,70,70,70,1
178.79778587708478,70,70,70,1
141.79778587708478,95,70,95,1
139.96015510839146,70,70,70,1
102.21110255092798,70,70,70,1
24.65685424949238,70,70,70,1
177.30165768149422,70,70,70,1
17.65685424949238,95,95,95,1
25.65685424949238,70,70,70,1
155.41531071368593,70,70,70,1
171.961102550928,95,70,95,1
214.08233753887407,95,70,95,1
136.9762057497863,70,70,70,1
27.65685424949238,70,70,70,1
149.0016063034616,70,70,70,1
112.71110255092799,95,70,95,1
32.65685424949238,70,70,70,1
32.65685424949238,70,70,70,1
28.65685424949238,70,70,70,1
40.65685424949238,70,70,70,1
36.65685424949238,70,70,70,1
77.32455532033676,70,70,70,1
27.65685424949238,70,70,70,1
151.4792559654933,70,70,70,1
32.65685424949238,70,70,70,1
184.77265536373682,70,70,70,1
158.97538416108387,70,70,70,1
201.086102550928,95,70,95,1
32.65685424949238,70,70,70,1
34.65685424949238,70,70,70,1
135.711102550928,70,70,70,1
16.65685424949238,95,95,95,1
167.94717052842776,70,70,70,1
38.65685424949238,70,70,70,1
30.65685424949238,70,70,70,1
49.65685424949238,95,70,70,0
22.65685424949238,70,70,70,1
147.96015510839146,70,70,70,1
21.65685424949238,70,70,70,1
63.82842712474619,70,70,70,1
17.65685424949238,95,95,95,1
82.32455532033676,70,70,70,1
144.20820393249937,70,70,70,1
13.65685424949238,95,95,95,1
40.65685424949238,95,70,70,0
197.9702528332311,95,70,95,1
24.65685424949238,95,95,95,1
24.65685424949238,70,70,70,1
40.65685424949238,70,70,70,1
38.65685424949238,70,70,70,1
24.65685424949238,70,70,70,1
48.65685424949238,70,70,70,1
22.65685424949238,70,70,70,1
24.65685424949238,70,70,70,1
74.32455532033676,95,70,70,0
130.8262379212493,95,70,70,0
147.44717052842776,95,70,70,0
78.32455532033676,95,70,70,0
35.65685424949238,95,70,70,0
40.65685424949238,70,70,70,1
72.21110255092798,70,70,70,1
20.65685424949238,70,70,70,1
82.21110255092798,70,70,70,1
88.48528137423857,70,70,70,1
38.65685424949238,70,70,70,1
39.65685424949238,70,70,70,1
32.65685424949238,70,70,70,1
30.65685424949238,70,70,70,1
30.65685424949238,70,70,70,1
30.65685424949238,70,70,70,1
142.16233235736343,70,70,70,1
15.65685424949238,70,70,70,1
31.65685424949238,70,70,70,1
23.65685424949238,70,70,70,1
134.3033008588991,70,70,70,1
128.15427730961432,70,70,70,1
22.65685424949238,70,70,70,1
199.38724215840165,70,70,70,1
86.32455532033676,70,70,70,1
26.65685424949238,70,70,70,1
30.65685424949238,70,70,70,1
37.65685424949238,70,70,70,1
124.44258930908666,70,70,70,1
67.32455532033676,70,70,70,1
128.79942905448965,70,70,70,1
41.65685424949238,70,70,70,1
28.65685424949238,70,70,70,1
123.19974746830583,70,70,70,1
73.32455532033676,70,70,70,1
38.65685424949238,70,70,70,1
142.70820393249937,70,70,70,1
37.65685424949238,70,70,70,1
21.65685424949238,70,70,70,1
39.65685424949238,70,70,70,1
185.09270576218336,70,70,70,1
136.79942905448965,70,70,70,1
48.65685424949238,70,70,70,1
151.35920353115063,70,70,70,1
41.65685424949238,70,70,70,1
41.65685424949238,70,70,70,1
22.65685424949238,70,70,70,1
44.65685424949238,70,70,70,1
28.65685424949238,95,95,95,1
251.63180943979856,70,70,70,1
30.65685424949238,70,70,70,1
19.65685424949238,70,70,70,1
74.32455532033676,70,70,70,1
72.47213595499957,70,70,70,1
50.65685424949238,95,70,70,0
177.30165768149422,70,70,70,1
169.27265536373682,70,70,70,1
12.65685424949238,70,70,70,1
107.82842712474618,70,70,70,1
183.09270576218336,70,70,70,1
66.32455532033676,70,70,70,1
272.7377003920742,95,70,95,1
32.65685424949238,70,70,70,1
76.48528137423857,70,70,70,1
30.65685424949238,70,70,70,1
17.65685424949238,70,70,70,1
158.85331536298847,95,70,95,1
49.65685424949238,95,70,70,0
23.65685424949238,70,70,70,1
36.65685424949238,70,70,70,1
37.65685424949238,70,70,70,1
25.65685424949238,70,70,70,1
31.65685424949238,70,70,70,1
31.65685424949238,95,95,95,1
139.60331536298847,70,70,70,1
29.65685424949238,70,70,70,1
13.65685424949238,95,95,95,1
40.65685424949238,70,70,70,1
32.65685424949238,70,70,70,1
39.65685424949238,70,70,70,1
50.65685424949238,95,70,70,0
48.65685424949238,70,70,70,1
34.65685424949238,70,70,70,1
32.65685424949238,70,70,70,1
170.20797751228886,95,70,95,1
331.8547592422569,95,70,95,1
25.65685424949238,70,70,70,1
28.65685424949238,70,70,70,1
83.21110255092798,95,70,95,1
30.65685424949238,70,70,70,1
35.65685424949238,70,70,70,1
119.60660171779821,95,70,70,0
17.65685424949238,70,70,70,1
28.65685424949238,70,70,70,1
15.65685424949238,95,95,95,1
124.79942905448965,70,70,70,1
317.72666698800265,95,70,95,1
29.65685424949238,70,70,70,1
127.97213595499957,70,70,70,1
70.47213595499957,95,70,95,1
88.21110255092798,95,70,95,1
98.47213595499957,95,70,95,1
136.30165768149422,95,70,95,1
125.03166210152331,95,70,95,1
104.73876888270983,95,70,70,0
30.65685424949238,95,95,95,1
89.48528137423857,70,70,70,1
163.2816621015233,70,70,70,1
33.65685424949238,95,95,95,1
40.65685424949238,95,70,70,0
174.0336887678084,70,70,70,1
30.65685424949238,70,70,70,1
14.65685424949238,70,70,70,1
38.65685424949238,70,70,70,1
90.97213595499957,95,70,95,1
90.21110255092798,95,70,95,1
23.65685424949238,95,95,95,1
103.44587566389639,70,70,70,1
188.75618752280272,70,70,70,1
36.65685424949238,70,70,70,1
102.94974746830583,70,70,70,1
19.65685424949238,70,70,70,1
84.32455532033676,70,70,70,1
46.65685424949238,70,70,70,1
36.65685424949238,70,70,70,1
110.94974746830583,70,70,70,1
16.65685424949238,70,70,70,1
99.94974746830583,70,70,70,1
36.65685424949238,70,70,70,1
138.8566017177982,70,70,70,1
17.65685424949238,70,70,70,1
24.65685424949238,70,70,70,1
103.21110255092799,70,70,70,1
18.65685424949238,70,70,70,1
28.65685424949238,70,70,70,1
112.21110255092799,70,70,70,1
160.4792559654933,70,70,70,1
31.65685424949238,70,70,70,1
134.44258930908666,70,70,70,1
26.65685424949238,70,70,70,1
43.65685424949238,70,70,70,1
184.83167235811177,70,70,70,1
46.65685424949238,70,70,70,1
131.44258930908666,70,70,70,1
130.85331536298844,70,70,70,1
66.32455532033676,70,70,70,1
48.65685424949238,70,70,70,1
35.65685424949238,70,70,70,1
29.65685424949238,70,70,70,1
61.73876888270986,95,70,95,1
32.65685424949238,70,70,70,1
38.65685424949238,70,70,70,1
36.65685424949238,70,70,70,1
138.711102550928,70,70,70,1
102.70820393249937,70,70,70,1
39.65685424949238,70,70,70,1
66.47213595499957,70,70,70,1
19.65685424949238,70,70,70,1
128.44258930908666,70,70,70,1
24.65685424949238,70,70,70,1
99.89949493661166,70,70,70,1
76.47213595499957,70,70,70,1
36.65685424949238,70,70,70,1
130.96015510839146,70,70,70,1
17.65685424949238,70,70,70,1
103.44587566389639,70,70,70,1
66.32455532033676,70,70,70,1
114.71110255092799,70,70,70,1
21.65685424949238,70,70,70,1
36.65685424949238,70,70,70,1
111.44587566389639,70,70,70,1
151.41531071368593,70,70,70,1
199.1262087543301,70,70,70,1
34.65685424949238,70,70,70,1
27.65685424949238,70,70,70,1
23.65685424949238,70,70,70,1
142.94717052842776,70,70,70,1
43.65685424949238,70,70,70,1
19.65685424949238,95,95,95,1
139.6066017177982,70,70,70,1
129.44258930908663,95,70,70,0
25.65685424949238,95,95,95,1
38.65685424949238,70,70,70,1
29.65685424949238,70,70,70,1
30.65685424949238,70,70,70,1
132.60331536298847,70,70,70,1
14.65685424949238,70,70,70,1
18.65685424949238,70,70,70,1
103.24264068711928,95,70,70,0
45.65685424949238,70,70,70,1
22.65685424949238,70,70,70,1
145.9762057497863,70,70,70,1
21.65685424949238,95,95,95,1
9.65685424949238,70,70,70,1
119.56520451717765,95,70,70,0
138.96015510839146,70,70,70,1
35.65685424949238,70,70,70,1
39.65685424949238,95,95,95,1
234.5030885952764,70,70,70,1
24.65685424949238,70,70,70,1
75.47213595499957,95,70,95,1
11.65685424949238,95,95,95,1
144.60331536298847,95,70,70,0
188.22213595499957,95,70,95,1
25.65685424949238,70,70,70,1
24.65685424949238,70,70,70,1
30.65685424949238,95,95,95,1
99.32455532033676,95,70,70,0
150.94717052842776,70,70,70,1
122.44258930908666,70,70,70,1
18.65685424949238,70,70,70,1
14.65685424949238,70,70,70,1
131.96015510839146,70,70,70,1
12.65685424949238,70,70,70,1
148.16233235736343,70,70,70,1
34.65685424949238,70,70,70,1
20.65685424949238,70,70,70,1
249.76720888926167,70,70,70,1
27.65685424949238,70,70,70,1
130.96015510839146,70,70,70,1
22.65685424949238,70,70,70,1
21.65685424949238,70,70,70,1
143.16233235736343,70,70,70,1
123.9464611134961,70,70,70,1
71.21110255092798,70,70,70,1
144.20820393249937,70,70,70,1
123.44258930908666,70,70,70,1
123.30330085889909,70,70,70,1
127.60331536298847,70,70,70,1
37.65685424949238,70,70,70,1
117.32455532033676,70,70,70,1
36.65685424949238,70,70,70,1
133.44258930908666,70,70,70,1
38.65685424949238,70,70,70,1
34.65685424949238,70,70,70,1
87.89949493661166,70,70,70,1
22.65685424949238,70,70,70,1
134.32455532033674,70,70,70,1
35.65685424949238,70,70,70,1
28.65685424949238,70,70,70,1
113.82842712474618,70,70,70,1
46.65685424949238,70,70,70,1
31.65685424949238,70,70,70,1
36.65685424949238,70,70,70,1
39.65685424949238,70,70,70,1
30.65685424949238,70,70,70,1
137.96015510839146,70,70,70,1
48.65685424949238,70,70,70,1
18.65685424949238,95,95,95,1
36.65685424949238,70,70,70,1
34.65685424949238,70,70,70,1
36.65685424949238,70,70,70,1
69.32455532033676,70,70,70,1
122.32455532033676,70,70,70,1
32.65685424949238,70,70,70,1
30.65685424949238,70,70,70,1
35.65685424949238,70,70,70,1
154.15427730961432,70,70,70,1
36.65685424949238,70,70,70,1
18.65685424949238,70,70,70,1
77.47213595499957,95,70,95,1
33.65685424949238,70,70,70,1
125.71110255092799,70,70,70,1
34.65685424949238,70,70,70,1
40.65685424949238,70,70,70,1
41.65685424949238,70,70,70,1
25.65685424949238,70,70,70,1
138.4458756638964,70,70,70,1
43.65685424949238,70,70,70,1
85.32455532033676,70,70,70,1
31.65685424949238,70,70,70,1
132.96015510839146,70,70,70,1
30.65685424949238,70,70,70,1
18.65685424949238,70,70,70,1
48.65685424949238,95,70,70,0
100.47213595499957,70,70,70,1
36.65685424949238,70,70,70,1
34.65685424949238,70,70,70,1
37.65685424949238,95,95,95,1
128.9464611134961,95,70,70,0
43.65685424949238,70,70,70,1
41.65685424949238,70,70,70,1
21.65685424949238,95,95,95,1
30.65685424949238,70,70,70,1
132.44258930908666,70,70,70,1
103.73876888270983,95,70,70,0
99.97213595499957,95,70,95,1
20.65685424949238,70,70,70,1
13.65685424949238,95,95,95,1
115.32455532033676,95,70,70,0
37.65685424949238,70,70,70,1
43.65685424949238,70,70,70,1
34.65685424949238,70,70,70,1
25.65685424949238,70,70,70,1
23.65685424949238,70,70,70,1
116.82842712474618,95,70,70,0
35.65685424949238,70,70,70,1
32.65685424949238,70,70,70,1
88.32455532033676,70,70,70,1
235.7530885952764,70,70,70,1
139.97213595499957,70,70,70,1
139.60331536298847,70,70,70,1
31.65685424949238,70,70,70,1
43.65685424949238,70,70,70,1
26.65685424949238,70,70,70,1
32.65685424949238,70,70,70,1
24.65685424949238,70,70,70,1
45.65685424949238,70,70,70,1
32.65685424949238,70,70,70,1
132.70820393249937,70,70,70,1
34.65685424949238,70,70,70,1
17.65685424949238,70,70,70,1
20.65685424949238,70,70,70,1
37.65685424949238,70,70,70,1
17.65685424949238,70,70,70,1
132.94974746830582,70,70,70,1
219.22359213570158,70,70,70,1
30.65685424949238,70,70,70,1
196.34270576218336,70,70,70,1
23.65685424949238,70,70,70,1
131.96015510839146,70,70,70,1
29.65685424949238,70,70,70,1
37.65685424949238,70,70,70,1
43.65685424949238,70,70,70,1
46.65685424949238,70,70,70,1
32.65685424949238,70,70,70,1
32.65685424949238,70,70,70,1
28.65685424949238,70,70,70,1
55.82842712474619,70,70,70,1
21.65685424949238,70,70,70,1
21.65685424949238,70,70,70,1
36.65685424949238,70,70,70,1
231.86707601344568,70,70,70,1
129.96015510839146,70,70,70,1
43.65685424949238,70,70,70,1
139.50547810787106,70,70,70,1
30.65685424949238,70,70,70,1
34.65685424949238,70,70,70,1
37.65685424949238,70,70,70,1
40.65685424949238,70,70,70,1
84.48528137423857,70,70,70,1
30.65685424949238,70,70,70,1
31.65685424949238,70,70,70,1
128.79942905448965,70,70,70,1
104.82623792124927,70,70,70,1
128.60331536298847,70,70,70,1
132.60331536298847,70,70,70,1
37.65685424949238,70,70,70,1
30.65685424949238,70,70,70,1
34.65685424949238,70,70,70,1
56.47213595499958,95,70,95,1
30.65685424949238,70,70,70,1
26.65685424949238,70,70,70,1
28.65685424949238,70,70,70,1
30.65685424949238,70,70,70,1
91.97213595499957,95,70,95,1
32.65685424949238,70,70,70,1
115.21110255092799,70,70,70,1
125.44258930908666,70,70,70,1
13.65685424949238,95,95,95,1
46.65685424949238,70,70,70,1
14.65685424949238,70,70,70,1
36.65685424949238,70,70,70,1
127.70820393249937,70,70,70,1
46.65685424949238,70,70,70,1
16.65685424949238,70,70,70,1
31.65685424949238,70,70,70,1
46.65685424949238,70,70,70,1
76.21110255092798,70,70,70,1
37.65685424949238,70,70,70,1
37.65685424949238,70,70,70,1
17.65685424949238,70,70,70,1
35.65685424949238,70,70,70,1
40.65685424949238,70,70,70,1
32.65685424949238,70,70,70,1
67.32455532033676,70,70,70,1
71.32455532033676,70,70,70,1
129.47213595499957,70,70,70,1
134.15427730961432,70,70,70,1
33.65685424949238,70,70,70,1
101.44587566389639,70,70,70,1
155.4792559654933,70,70,70,1
137.15427730961432,70,70,70,1
234.76720888926167,70,70,70,1
37.65685424949238,70,70,70,1
114.32455532033676,70,70,70,1
179.961102550928,95,70,95,1
132.96015510839146,70,70,70,1
27.65685424949238,70,70,70,1
180.77265536373682,70,70,70,1
28.65685424949238,70,70,70,1
23.65685424949238,70,70,70,1
37.65685424949238,70,70,70,1
25.65685424949238,70,70,70,1
31.65685424949238,70,70,70,1
55.211102550927976,70,70,70,1
36.65685424949238,70,70,70,1
14.65685424949238,95,95,95,1
133.60331536298847,95,70,70,0
49.65685424949238,95,70,70,0
36.65685424949238,70,70,70,1
123.24264068711928,70,70,70,1
117.97213595499957,95,70,95,1
21.65685424949238,70,70,70,1
129.60331536298847,70,70,70,1
108.71110255092799,95,70,95,1
100.21110255092798,95,70,95,1
126.69587566389639,70,70,70,1
92.73876888270985,70,70,70,1
124.94646111349607,70,70,70,1
23.65685424949238,95,95,95,1
29.65685424949238,70,70,70,1
29.65685424949238,70,70,70,1
70.47213595499957,95,70,95,1
130.19646111349607,95,70,95,1
39.65685424949238,70,70,70,1
182.38724215840165,70,70,70,1
151.4792559654933,70,70,70,1
32.65685424949238,95,95,95,1
103.82842712474618,95,70,95,1
20.65685424949238,70,70,70,1
60.324555320336756,70,70,70,1
32.65685424949238,70,70,70,1
80.48528137423857,70,70,70,1
42.65685424949238,70,70,70,1
148.0316621015233,70,70,70,1
31.65685424949238,70,70,70,1
44.65685424949238,70,70,70,1
79.32455532033676,70,70,70,1
78.32455532033676,70,70,70,1
209.7377003920742,70,70,70,1
38.65685424949238,70,70,70,1
130.79942905448965,70,70,70,1
13.65685424949238,70,70,70,1
21.65685424949238,70,70,70,1
31.65685424949238,70,70,70,1
45.65685424949238,70,70,70,1
46.65685424949238,70,70,70,1
69.82842712474618,70,70,70,1
70.32455532033676,70,70,70,1
11.65685424949238,70,70,70,1
33.65685424949238,70,70,70,1
47.65685424949238,70,70,70,1
39.65685424949238,70,70,70,1
63.82842712474619,70,70,70,1
40.65685424949238,70,70,70,1
20.65685424949238,70,70,70,1
42.65685424949238,70,70,70,1
185.12265235919304,70,70,70,1
38.65685424949238,70,70,70,1
24.65685424949238,70,70,70,1
18.65685424949238,70,70,70,1
117.82842712474618,70,70,70,1
116.97213595499957,95,70,95,1
36.65685424949238,70,70,70,1
21.65685424949238,70,70,70,1
144.44258930908666,70,70,70,1
28.65685424949238,70,70,70,1
90.47213595499957,70,70,70,1
150.0016063034616,70,70,70,1
43.65685424949238,70,70,70,1
113.21110255092799,70,70,70,1
36.65685424949238,70,70,70,1
37.65685424949238,70,70,70,1
122.48528137423857,70,70,70,1
36.65685424949238,70,70,70,1
86.73876888270985,70,70,70,1
130.3033008588991,70,70,70,1
196.11118085529924,70,70,70,1
27.65685424949238,95,95,95,1
36.65685424949238,70,70,70,1
54.211102550927976,95,70,95,1
117.97213595499957,95,70,95,1
265.65344368329926,95,70,95,1
138.32455532033674,95,70,70,0
15.65685424949238,70,70,70,1
255.50617548519008,70,70,70,1
156.38521549211657,70,70,70,1
44.65685424949238,70,70,70,1
133.70820393249937,70,70,70,1
115.44717052842778,70,70,70,1
40.65685424949238,70,70,70,1
33.65685424949238,70,70,70,1
42.324555320336756,70,70,70,1
20.65685424949238,70,70,70,1
82.48528137423857,70,70,70,1
97.73876888270985,70,70,70,1
137.4458756638964,70,70,70,1
48.65685424949238,95,70,70,0
17.65685424949238,95,95,95,1
130.44258930908666,95,70,70,0
33.65685424949238,70,70,70,1
43.65685424949238,95,70,70,0
19.65685424949238,70,70,70,1
111.82623792124927,95,70,70,0
127.85660171779821,70,70,70,1
91.71110255092798,95,70,95,1
32.65685424949238,70,70,70,1
27.65685424949238,70,70,70,1
127.60331536298847,70,70,70,1
31.65685424949238,70,70,70,1
19.65685424949238,95,95,95,1
18.65685424949238,70,70,70,1
126.48528137423857,70,70,70,1
28.65685424949238,70,70,70,1
13.65685424949238,95,95,95,1
251.5030885952764,70,70,70,1
207.4877003920742,95,70,95,1
25.65685424949238,70,70,70,1
43.65685424949238,70,70,70,1
21.65685424949238,95,95,95,1
45.65685424949238,95,70,70,0
49.65685424949238,95,70,70,0
198.37221425937082,70,70,70,1
40.65685424949238,70,70,70,1
19.65685424949238,70,70,70,1
29.65685424949238,70,70,70,1
30.65685424949238,70,70,70,1
21.65685424949238,70,70,70,1
150.19238815542514,70,70,70,1
37.65685424949238,70,70,70,1
127.44258930908663,70,70,70,1
14.65685424949238,70,70,70,1
87.32455532033676,70,70,70,1
151.41531071368593,70,70,70,1
139.6066017177982,70,70,70,1
31.65685424949238,70,70,70,1
82.32455532033676,70,70,70,1
100.94974746830583,70,70,70,1
20.65685424949238,70,70,70,1
73.82842712474618,70,70,70,1
29.65685424949238,70,70,70,1
169.961102550928,70,70,70,1
24.65685424949238,70,70,70,1
28.65685424949238,70,70,70,1
105.44587566389639,70,70,70,1
135.79942905448965,70,70,70,1
129.711102550928,70,70,70,1
38.65685424949238,70,70,70,1
43.65685424949238,70,70,70,1
99.94974746830583,70,70,70,1
41.65685424949238,70,70,70,1
72.82842712474618,70,70,70,1
76.48528137423857,70,70,70,1
40.65685424949238,70,70,70,1
39.65685424949238,70,70,70,1
41.65685424949238,70,70,70,1
33.65685424949238,70,70,70,1
53.65685424949238,95,70,70,0
112.44587566389639,70,70,70,1
33.65685424949238,70,70,70,1
246.5030885952764,70,70,70,1
26.65685424949238,70,70,70,1
42.65685424949238,95,70,70,0
35.65685424949238,70,70,70,1
234.7607826968775,70,70,70,1
158.4792559654933,70,70,70,1
36.65685424949238,70,70,70,1
26.65685424949238,70,70,70,1
39.65685424949238,70,70,70,1
69.21110255092798,70,70,70,1
30.65685424949238,70,70,70,1
32.65685424949238,70,70,70,1
169.0336887678084,70,70,70,1
43.65685424949238,70,70,70,1
34.65685424949238,95,95,95,1
44.65685424949238,95,70,70,0
35.65685424949238,70,70,70,1
36.65685424949238,70,70,70,1
134.44258930908666,95,70,70,0
31.65685424949238,70,70,70,1
22.65685424949238,70,70,70,1
147.0016063034616,70,70,70,1
137.4458756638964,70,70,70,1
42.65685424949238,95,70,70,0
100.44587566389639,70,70,70,1
83.21110255092798,70,70,70,1
151.4792559654933,70,70,70,1
66.32455532033676,70,70,70,1
37.65685424949238,70,70,70,1
33.65685424949238,70,70,70,1
67.32455532033676,70,70,70,1
31.65685424949238,70,70,70,1
49.65685424949238,95,70,70,0
98.24264068711929,70,70,70,1
20.65685424949238,70,70,70,1
123.71110255092799,95,70,95,1
205.28692574716288,70,70,70,1
35.65685424949238,70,70,70,1
221.47005308338825,70,70,70,1
38.65685424949238,70,70,70,1
99.71110255092798,95,70,95,1
32.65685424949238,70,70,70,1
29.65685424949238,70,70,70,1
119.97213595499957,95,70,95,1
13.65685424949238,70,70,70,1
45.65685424949238,95,70,70,0
144.13693180368813,70,70,70,1
140.711102550928,70,70,70,1
82.47213595499957,95,70,95,1
23.65685424949238,70,70,70,1
36.65685424949238,70,70,70,1
43.65685424949238,95,70,70,0
73.32455532033676,70,70,70,1
128.60331536298847,95,70,70,0
148.41531071368593,70,70,70,1
186.25844905340838,95,70,95,1
38.65685424949238,70,70,70,1
13.65685424949238,95,95,95,1
21.65685424949238,70,70,70,1
213.72666698800262,70,70,70,1
129.79942905448965,70,70,70,1
35.65685424949238,95,70,70,0
17.65685424949238,70,70,70,1
23.65685424949238,95,95,95,1
34.65685424949238,70,70,70,1
38.65685424949238,70,70,70,1
128.3033008588991,70,70,70,1
35.65685424949238,70,70,70,1
125.44258930908666,70,70,70,1
19.65685424949238,70,70,70,1
12.65685424949238,70,70,70,1
122.32455532033676,70,70,70,1
39.65685424949238,70,70,70,1
13.65685424949238,70,70,70,1
30.65685424949238,70,70,70,1
29.65685424949238,70,70,70,1
65.82842712474618,70,70,70,1
84.48528137423857,70,70,70,1
127.32455532033676,70,70,70,1
70.48528137423857,70,70,70,1
41.65685424949238,70,70,70,1
166.13611021498568,70,70,70,1
217.4877003920742,70,70,70,1
105.97213595499957,70,70,70,1
42.65685424949238,70,70,70,1
164.66531071368593,70,70,70,1
43.65685424949238,70,70,70,1
36.65685424949238,70,70,70,1
20.65685424949238,70,70,70,1
19.65685424949238,70,70,70,1
24.65685424949238,70,70,70,1
27.65685424949238,70,70,70,1
24.65685424949238,70,70,70,1
123.82842712474618,70,70,70,1
90.48528137423857,70,70,70,1
135.9762057497863,70,70,70,1
66.32455532033676,70,70,70,1
