72.7754837314698
73.51211730863437
73.8434845164296
74.05352207261723
74.32750448706452
74.4862618536856
74.60081448977293
74.66618902485753
74.74911031822077
74.84707124112889
74.88936872561331
74.98734732518948
74.99919211024697
75.05054655476535
75.07899460149676
75.15383537344266
75.18360525516665
75.20514585148365
75.25439058360868
