284.9980114176974
289.3977
289.24048999999997
283.61727
278.04613
280.56989
272.92735999999996
269.78504261363634
268.54066000000006
266.63428999999996
265.71148
263.14259
263.04748
260.30334
260.15396999999996
258.77383000000003
254.64514000000003
255.98812
253.04722
