23.82,25.0,23.91,231.32
19.53,26.25,19.51,289.99
21.52,22.8,21.56,252.83
21.51,23.02,22.0,242.98
20.94,23.02,21.02,231.15
26.54,26.91,26.69,231.32
23.11,23.35,23.35,225.85
19.24,19.92,19.92,225.85
22.9,24.41,22.92,259.31
25.3,26.25,25.46,242.98
23.38,24.08,23.42,231.32
20.7,23.02,20.76,302.61
21.36,27.59,23.31,370.49
24.79,25.0,25.0,225.85
19.91,23.35,20.01,461.68
19.91,23.43,19.96,225.85
22.9,25.61,23.09,229.49
20.62,21.93,20.58,252.83
24.01,26.91,23.93,238.06
15.66,20.62,15.61,246.52
21.4,25.5,21.55,340.79
25.16,26.91,25.22,235.77
23.71,26.87,23.83,231.32
24.52,24.76,24.76,225.85
23.75,25.5,23.73,225.85
23.71,25.0,23.71,235.77
23.05,26.91,22.89,232.14
24.79,27.59,24.8,231.32
20.7,21.93,21.1,242.98
25.11,26.17,25.01,274.96
22.19,24.41,22.62,285.48
24.21,28.28,24.32,258.73
23.75,26.25,23.83,231.32
21.87,24.84,22.16,259.74
24.79,25.0,24.69,235.12
19.45,23.35,19.86,402.72
21.32,24.04,21.46,229.49
22.73,22.8,22.8,225.85
19.81,21.54,19.89,244.67
23.75,24.84,23.65,231.15
21.78,22.2,21.84,238.06
22.36,25.5,22.42,231.32
20.93,23.43,21.01,231.32
23.38,26.87,23.51,225.85
22.73,24.08,22.78,245.51
23.75,25.0,24.01,242.98
24.79,24.84,24.84,225.85
21.02,23.32,21.4,272.53
19.31,21.21,19.27,286.96
21.03,21.93,21.08,238.42
21.01,24.04,21.27,288.17
22.02,22.2,22.2,225.85
23.75,25.61,23.88,235.77
24.01,25.0,24.03,232.14
19.92,20.62,19.9,246.22
23.69,26.17,23.82,347.41
25.3,25.61,25.39,231.32
21.47,25.61,21.73,370.49
20.89,26.17,21.71,370.49
24.6,26.25,24.7,270.64
22.9,23.32,23.11,231.32
24.14,26.17,24.28,286.96
26.91,26.91,26.91,225.85
23.51,26.17,23.68,229.49
22.3,24.76,22.46,347.41
23.05,23.43,23.07,231.32
22.9,23.43,22.95,238.06
20.7,21.4,20.68,229.49
23.44,26.91,23.85,248.98
24.01,25.5,24.13,235.77
19.85,23.43,20.0,248.98
20.59,21.95,20.72,231.32
25.87,27.59,25.85,225.85
22.2,27.59,22.31,343.01
24.05,27.59,24.05,225.85
23.11,24.41,23.33,231.32
22.41,28.28,23.26,401.78
23.26,26.91,23.77,248.98
21.66,21.93,21.71,231.32
22.73,24.08,22.72,259.31
21.91,22.02,22.02,225.85
25.87,28.28,26.0,285.48
23.71,27.59,23.97,402.72
24.08,25.61,24.18,244.67
20.52,21.95,20.62,274.96
23.24,25.5,23.53,286.96
25.22,28.28,25.57,288.17
25.54,25.61,25.61,225.85
24.6,27.59,24.63,257.89
24.6,25.61,24.66,274.96
21.02,22.83,21.14,243.71
24.79,26.17,24.92,244.67
22.98,26.17,23.21,256.93
24.79,26.91,24.82,302.61
21.51,24.84,22.26,285.48
22.15,25.61,22.11,280.62
20.89,21.26,20.85,231.32
25.93,27.59,25.96,225.85
20.7,23.35,20.95,285.48
24.46,27.59,24.57,231.32
19.81,21.63,20.21,244.67
19.47,22.47,19.85,256.2
21.91,23.32,21.82,259.31
19.78,23.02,19.8,288.17
24.08,25.5,24.17,231.32
24.21,25.61,24.34,231.32
23.43,24.08,23.46,231.32
22.8,23.6,23.0,229.16
22.32,25.46,22.96,285.48
21.1,22.02,21.25,229.16
23.16,25.61,23.45,285.48
21.22,24.04,21.63,285.48
21.24,21.54,21.12,235.12
20.84,22.8,20.87,241.06
22.64,22.83,22.53,238.06
22.05,26.25,22.71,340.79
23.05,23.43,23.09,231.15
24.79,27.59,24.88,231.32
23.43,25.0,23.53,244.67
22.63,26.91,22.91,238.06
23.03,27.59,22.89,235.6
21.26,24.84,22.54,316.77
23.05,27.59,23.1,243.71
20.93,23.35,20.92,231.32
22.5,26.25,22.51,235.12
23.9,24.76,23.99,242.98
23.38,24.41,23.76,231.32
22.64,23.32,22.71,242.98
22.3,22.67,22.21,238.06
21.63,22.47,21.61,229.49
21.71,22.2,22.02,235.12
22.19,24.41,22.62,347.41
21.29,24.76,21.63,265.68
22.67,25.5,22.63,288.17
22.64,23.32,22.71,242.98
22.81,25.61,22.89,231.32
20.74,23.32,20.81,400.41
21.69,25.0,21.7,272.53
23.38,26.17,23.52,229.49
21.1,23.43,21.05,229.16
21.27,22.67,21.39,231.32
20.62,24.21,20.7,225.85
22.28,25.61,22.25,357.92
22.73,24.76,22.77,286.96
23.05,27.59,23.13,232.14
21.92,23.85,22.03,232.14
17.95,19.7,17.93,231.15
22.2,25.46,22.22,262.07
20.84,24.21,20.92,400.41
19.92,20.62,19.96,259.31
21.97,23.35,22.06,231.32
22.3,24.84,22.45,285.48
20.16,23.32,20.22,238.06
26.2,26.87,26.21,231.32
23.38,23.6,23.6,225.85
25.22,26.87,25.37,231.32
26.58,28.28,26.6,225.85
21.51,24.41,21.5,256.2
25.22,27.59,25.41,231.32
22.39,25.5,22.84,256.2
21.51,21.93,21.51,238.06
22.36,24.41,22.47,256.2
24.21,25.61,24.49,259.31
23.24,26.17,23.3,288.17
20.3,22.36,20.19,250.34
24.3,26.17,24.41,225.85
20.55,21.95,20.62,274.96
21.54,23.85,22.31,286.96
22.9,25.0,23.05,235.77
20.62,23.6,20.64,288.17
20.43,21.02,20.52,242.98
24.79,24.84,24.84,225.85
23.07,26.17,23.02,248.98
23.77,25.5,24.13,235.77
24.46,26.25,24.52,270.64
21.47,25.46,21.7,246.22
22.67,25.61,23.45,285.48
20.84,23.85,20.9,246.22
26.58,26.91,26.69,231.32
21.83,24.84,22.62,285.48
21.92,23.35,21.8,252.83
23.2,26.91,23.23,357.92
19.31,23.35,19.29,461.68
24.79,25.46,24.87,231.32
25.16,26.17,25.33,242.98
23.29,24.76,23.29,235.77
20.89,22.67,20.93,270.64
22.64,24.84,22.73,316.77
20.94,22.02,21.25,242.98
21.93,26.91,22.72,231.32
24.08,25.5,24.22,231.32
22.9,24.84,22.95,316.77
22.83,23.32,22.95,229.16
24.79,25.61,24.93,229.16
18.51,20.52,19.01,270.64
24.3,25.61,24.33,231.32
23.72,26.25,23.83,231.32
23.43,26.91,23.51,225.85
25.93,27.59,26.16,225.85
26.54,26.91,26.69,231.32
24.08,26.25,24.06,302.61
26.58,26.91,26.69,231.32
22.73,25.5,23.44,347.41
26.2,26.17,26.17,225.85
21.4,21.63,21.63,225.85
24.08,25.5,24.13,259.31
22.5,26.91,22.64,229.49
21.02,25.0,21.83,256.2
20.62,21.63,20.65,244.67
23.51,26.91,23.8,231.32
21.91,23.6,21.85,225.85
22.14,24.76,22.54,347.41
20.55,21.4,20.69,229.16
23.11,28.28,24.4,340.79
21.69,23.85,21.8,270.64
19.73,20.62,19.81,274.96
19.01,21.21,19.13,286.96
24.14,26.25,24.52,286.96
21.71,22.2,21.68,238.42
20.62,23.32,20.68,232.14
24.44,26.87,24.81,286.96
22.15,24.04,22.34,270.64
23.26,24.41,23.15,235.6
24.21,26.25,24.28,286.96
25.7,26.25,25.66,231.32
19.66,20.0,20.0,225.85
19.68,21.4,19.65,225.85
23.11,24.76,23.11,235.77
24.75,26.17,24.83,231.32
24.79,28.28,24.91,225.85
23.02,26.87,23.16,340.79
23.52,26.17,23.4,272.53
22.95,26.17,23.19,271.78
22.2,24.84,22.95,316.77
23.71,24.76,23.87,242.98
24.6,26.91,24.85,285.48
20.16,25.0,20.3,343.01
25.16,25.5,25.27,231.32
24.46,25.61,24.51,231.32
25.5,27.59,25.6,231.32
21.27,21.95,21.17,235.12
20.94,21.95,21.18,259.31
20.89,21.26,21.04,231.32
22.02,23.35,22.0,252.83
20.3,20.81,20.27,238.42
20.3,23.43,20.36,225.85
22.77,26.17,22.84,258.25
20.81,23.43,21.23,285.48
20.3,24.21,20.21,252.33
23.02,25.0,23.1,347.41
22.47,27.59,22.41,313.4
25.54,26.91,25.58,231.32
24.41,25.0,24.36,229.16
25.0,28.28,25.57,288.17
22.47,24.04,22.48,241.06
23.33,27.59,23.26,229.16
20.67,23.6,21.59,285.48
20.62,21.02,20.73,235.12
24.91,27.59,25.07,229.49
25.87,27.59,26.16,225.85
21.36,22.36,21.68,238.42
20.89,26.25,21.21,275.42
23.35,27.59,23.3,229.49
20.25,24.84,20.28,231.32
22.5,24.84,22.63,231.32
22.1,23.32,22.3,245.03
20.93,23.02,21.01,270.64
26.58,28.28,26.75,225.85
20.89,24.21,21.67,347.41
18.03,21.02,18.25,286.96
21.4,24.04,21.55,256.2
20.89,22.36,21.13,242.98
25.16,27.59,25.22,231.32
21.95,22.8,21.85,274.96
19.24,22.67,20.34,285.48
24.79,27.59,24.88,231.32
18.51,19.21,18.45,229.16
21.71,25.61,21.82,231.15
21.47,26.91,22.31,313.4
24.91,28.28,25.17,231.32
22.61,26.91,22.8,432.41
24.15,28.28,24.38,260.25
20.86,26.17,20.87,373.85
21.64,24.21,21.76,229.49
20.65,27.59,21.03,297.07
25.5,26.87,25.63,231.32
25.54,26.87,25.77,231.32
23.11,26.25,23.16,231.32
25.83,28.28,25.85,231.32
24.08,25.5,24.39,231.32
20.93,24.04,21.27,288.17
25.61,26.17,25.66,231.32
22.98,24.84,23.01,270.64
24.6,25.0,24.65,231.32
21.4,26.25,22.93,402.72
21.03,22.83,21.25,225.85
25.54,27.59,25.61,235.6
22.34,24.08,22.37,225.85
20.4,23.02,21.13,285.48
21.03,26.87,20.97,274.96
22.98,27.59,23.24,285.34
21.71,21.95,21.77,231.15
22.64,26.91,22.53,229.16
19.21,20.59,19.34,245.03
25.0,25.5,25.07,231.32
24.19,25.61,24.18,244.67
20.0,21.19,20.0,231.32
22.14,24.84,22.27,272.53
24.84,25.0,25.0,225.85
25.16,25.61,25.2,231.32
21.1,26.17,21.16,313.4
22.61,24.08,22.7,225.85
24.08,25.61,24.22,231.32
22.34,22.67,22.45,231.32
22.46,27.59,22.72,341.53
21.73,23.35,22.06,231.32
25.83,26.91,25.86,231.32
25.12,26.25,25.31,242.98
21.1,22.36,21.11,231.32
23.01,24.41,23.53,259.31
23.05,25.46,23.37,286.96
23.94,24.41,23.95,237.1
22.28,22.83,22.44,246.22
20.23,25.0,21.15,401.78
21.32,26.25,21.38,252.83
24.38,26.91,24.49,233.47
22.34,23.43,22.36,231.32
22.98,23.32,23.11,231.32
22.77,26.91,22.81,229.16
21.24,22.67,21.48,259.31
22.2,23.85,22.27,245.03
19.6,23.35,19.63,342.27
18.44,20.88,19.01,270.64
21.38,24.84,21.82,288.17
25.11,27.59,25.35,347.41
21.64,23.6,21.85,225.85
24.0,28.28,23.88,250.34
23.35,24.76,23.45,231.32
22.67,22.67,22.67,225.85
24.21,24.76,24.33,238.06
21.1,25.5,21.25,400.41
21.32,25.46,21.65,263.56
20.25,21.1,20.18,259.31
23.38,25.5,23.53,316.77
23.35,26.87,23.33,225.85
22.1,25.46,22.48,266.05
26.58,26.91,26.69,231.32
22.14,26.87,22.32,274.96
22.02,26.17,22.13,229.16
24.19,26.91,24.41,254.28
18.5,21.93,18.93,265.68
27.95,28.28,28.06,231.32
22.3,23.6,22.61,242.98
24.79,27.59,24.8,231.32
22.9,25.0,22.95,231.32
21.91,25.61,21.87,258.73
24.19,25.5,24.38,274.96
19.42,24.84,19.61,356.64
24.46,25.5,24.45,231.32
25.22,26.91,25.3,270.64
23.43,24.41,23.76,231.32
22.61,25.46,22.42,231.32
22.73,22.83,22.83,225.85
25.16,26.17,25.33,242.98
21.93,23.35,22.06,231.32
20.52,25.61,21.0,242.98
23.82,25.61,23.95,225.85
20.16,21.63,20.35,235.77
25.87,27.59,26.16,225.85
23.6,25.0,23.92,259.31
22.39,26.91,22.65,340.79
16.64,21.95,16.71,336.53
19.53,22.36,21.06,347.41
18.03,20.62,18.48,285.48
19.81,20.62,20.02,286.96
18.53,20.52,19.0,401.78
23.51,26.87,23.6,248.98
24.41,26.91,24.57,347.41
20.16,20.12,20.12,225.85
24.7,27.59,24.71,231.32
21.73,23.32,21.75,347.41
24.79,24.84,24.84,225.85
19.45,19.92,19.37,229.16
20.81,21.4,20.71,237.1
23.75,25.61,23.86,225.85
25.54,26.17,25.66,231.32
19.91,23.6,20.22,325.94
25.16,26.17,25.28,242.98
22.74,24.41,23.07,235.77
23.71,26.25,23.61,229.49
20.89,23.6,21.43,288.17
22.67,25.5,22.72,261.73
24.08,24.76,24.27,229.16
23.01,24.84,22.98,270.64
22.74,24.41,22.77,286.96
22.5,25.0,22.6,231.32
23.05,26.17,23.19,272.53
23.77,26.25,24.27,285.48
23.71,24.21,23.84,231.15
19.6,21.93,19.57,347.41
21.95,26.25,22.41,370.49
23.07,26.25,23.01,257.89
21.51,24.21,22.08,285.48
22.61,24.84,22.85,285.48
23.16,25.0,23.58,235.77
22.8,25.0,22.81,248.35
24.21,27.59,24.33,231.32
19.47,20.0,19.49,238.42
22.83,23.85,22.89,244.67
26.95,28.28,26.96,231.32
22.67,27.59,22.74,231.15
24.42,27.59,24.53,231.32
22.2,24.76,22.64,225.85
20.43,26.17,22.06,400.41
23.05,25.5,23.38,302.61
23.43,27.59,23.41,245.03
21.29,23.6,21.61,246.22
24.01,26.91,24.04,231.32
20.57,26.87,22.34,370.49
22.02,26.91,22.28,235.77
20.89,25.5,21.6,340.79
24.08,26.25,24.13,252.5
20.89,23.43,21.1,285.48
23.44,26.17,23.88,248.98
23.82,26.87,24.0,231.32
24.25,27.59,24.23,258.25
22.19,24.84,23.07,270.64
21.03,26.91,22.09,432.41
23.9,24.21,23.83,231.15
19.53,20.88,20.0,256.2
20.7,23.85,20.8,238.06
23.41,24.84,23.5,245.03
23.75,25.5,23.84,245.51
23.2,25.0,23.13,241.06
23.71,25.5,23.73,225.85
23.2,23.6,23.19,238.06
23.31,26.17,23.8,285.48
23.35,27.59,23.44,245.71
24.4,25.46,24.4,231.32
25.61,25.61,25.61,225.85
22.34,23.6,22.51,231.32
21.98,25.0,22.32,285.48
19.83,22.2,19.86,229.16
26.58,27.59,26.74,242.98
19.01,23.43,19.6,285.34
22.32,24.04,22.27,225.85
21.66,22.47,21.62,229.16
21.57,25.5,21.84,235.6
20.16,22.83,20.37,302.61
20.3,23.32,20.36,265.71
21.32,24.76,21.37,256.93
20.23,24.76,20.34,229.49
23.69,24.84,23.68,259.31
19.21,20.81,19.31,244.67
19.16,23.85,19.34,231.32
23.75,26.17,24.14,302.61
22.3,23.35,22.45,229.16
23.11,27.59,23.17,265.68
21.97,25.0,22.11,256.2
25.83,26.25,26.03,231.32
22.02,25.61,22.1,225.85
25.87,26.87,26.0,242.98
22.83,24.76,22.77,286.96
21.4,24.41,21.83,285.48
21.38,23.85,21.62,229.16
23.07,25.61,23.2,285.48
19.6,23.6,19.79,245.51
24.79,26.91,25.16,270.64
22.09,24.08,22.51,267.4
20.89,21.93,21.03,235.77
21.01,23.02,21.1,231.32
26.2,26.91,26.27,231.32
20.8,22.63,21.01,235.77
22.83,26.87,23.33,225.85
22.64,26.25,23.08,231.32
21.64,26.91,22.19,259.31
25.22,26.17,25.22,241.91
21.51,21.47,21.47,225.85
22.28,23.35,22.25,231.32
26.17,27.59,26.33,244.67
22.33,23.43,22.65,242.98
22.5,23.35,22.46,229.49
22.8,25.5,23.15,347.41
25.54,26.91,25.58,231.32
23.75,26.87,23.88,266.05
19.6,20.81,19.55,274.96
22.47,26.25,23.06,235.6
24.13,24.84,24.05,242.98
20.55,21.54,20.7,229.16
24.84,25.46,25.07,231.32
25.5,26.17,25.51,231.32
23.9,24.84,23.99,242.98
20.89,22.02,20.85,246.19
21.8,26.25,22.26,285.34
20.88,23.35,21.13,285.48
24.91,26.17,25.07,231.32
21.03,21.95,21.36,229.16
21.59,23.6,21.75,285.48
23.38,24.76,23.41,252.83
23.71,26.91,24.04,231.32
22.64,25.0,22.6,231.32
23.75,26.91,23.83,231.32
19.24,19.24,19.24,225.85
23.72,24.84,23.88,241.06
22.14,25.5,22.63,231.32
20.55,21.02,21.02,225.85
22.15,23.43,22.28,259.31
23.33,25.5,23.7,286.96
24.79,25.46,24.79,231.32
23.07,23.32,23.13,231.15
20.11,21.26,20.16,235.77
23.38,24.04,23.38,231.32
22.41,24.21,22.41,235.77
21.63,22.83,22.04,242.98
22.34,26.25,22.51,231.32
19.98,22.83,20.62,264.57
19.45,22.8,20.89,347.41
19.14,19.72,19.11,238.42
22.39,27.59,22.74,370.49
22.41,27.59,23.45,400.41
22.73,23.43,22.86,231.32
20.3,20.4,20.33,231.15
23.85,26.25,23.99,256.2
23.71,26.17,24.0,286.96
22.14,24.41,22.2,257.89
24.21,25.0,24.31,229.49
20.55,22.02,20.57,225.85
23.33,24.76,23.3,241.06
23.38,26.17,23.47,231.32
21.47,22.8,21.41,259.31
26.91,27.59,26.92,231.32
20.52,24.76,20.7,259.74
24.21,26.17,24.29,286.96
25.7,27.59,25.93,235.77
20.43,23.6,21.83,285.48
22.59,23.02,22.65,238.06
22.39,23.35,22.51,242.98
19.42,20.62,19.66,242.98
21.83,23.6,22.01,235.77
25.74,27.59,25.82,225.85
23.32,23.32,23.32,225.85
24.14,27.59,24.3,225.85
21.1,21.63,21.28,231.32
22.28,24.04,22.29,225.85
21.57,24.76,21.89,290.13
25.0,27.59,25.17,231.32
22.2,23.85,22.18,252.83
22.61,24.84,22.59,231.32
21.47,22.36,21.52,229.49
24.46,28.28,24.53,235.6
23.2,24.41,23.33,231.32
24.79,26.87,24.88,231.32
21.64,25.5,21.73,235.6
21.27,21.47,21.33,235.6
27.24,28.28,27.28,231.32
19.8,21.02,20.01,242.98
23.58,25.61,23.7,347.41
20.43,20.81,20.38,238.06
19.61,23.35,19.63,266.05
26.2,26.91,26.25,231.32
25.16,27.59,25.41,316.77
24.01,25.61,23.94,245.03
20.52,23.32,20.76,229.49
22.73,27.59,23.18,522.31
27.95,28.28,28.06,231.32
23.02,25.46,23.03,231.32
21.32,22.2,21.4,229.49
21.71,25.5,21.68,235.6
22.1,24.08,22.5,235.77
23.35,27.59,23.33,245.03
22.01,27.59,23.07,370.49
20.16,21.63,20.33,235.6
22.15,24.41,22.41,270.64
22.5,22.83,22.83,225.85
19.91,23.43,20.19,258.25
24.08,25.5,24.22,231.32
21.8,22.47,21.85,246.22
22.41,24.84,22.51,246.22
25.27,28.28,25.39,272.53
22.73,24.21,23.24,242.98
25.93,28.28,26.07,231.32
21.1,22.2,21.2,242.98
20.52,21.95,20.72,231.32
23.2,26.17,23.24,272.53
23.31,26.17,23.38,272.53
25.16,26.91,25.19,225.85
23.69,24.76,23.65,274.96
23.16,26.17,23.3,231.32
24.84,26.17,24.91,231.32
23.9,24.08,24.08,225.85
20.93,24.04,20.98,271.78
19.53,22.67,20.43,316.77
22.52,25.46,22.36,231.32
22.15,24.08,22.13,286.96
19.66,27.59,19.61,304.4
21.29,21.95,21.1,229.49
21.51,26.25,21.47,259.31
19.04,22.36,19.12,256.2
22.34,23.85,22.77,231.32
22.1,23.32,22.14,245.03
23.82,26.91,23.91,231.32
20.18,24.21,20.17,372.08
22.15,26.17,22.09,246.22
21.97,24.04,22.02,286.96
23.69,25.5,23.64,243.71
22.2,24.84,22.33,347.41
19.85,23.43,20.11,271.78
22.73,25.61,22.77,283.99
22.2,24.41,22.27,231.32
20.36,22.47,20.42,266.05
23.75,25.61,23.86,225.85
23.38,24.84,23.48,231.32
23.02,24.84,23.31,235.77
24.41,26.17,24.52,235.77
24.3,27.59,24.71,231.32
19.1,20.02,19.08,231.32
23.05,24.08,22.92,259.31
21.22,25.61,21.26,248.35
21.26,24.08,21.26,248.98
21.83,23.43,22.01,235.77
21.4,23.43,21.48,347.41
24.52,25.0,24.56,231.32
22.9,26.91,23.0,263.56
22.74,26.91,22.89,401.78
23.72,25.61,23.86,225.85
22.2,23.6,22.33,231.32
23.6,26.25,23.56,288.17
21.36,24.08,21.9,285.48
21.59,23.43,21.67,225.85
22.83,25.61,22.95,256.2
19.6,22.8,19.56,225.85
22.1,22.47,22.26,231.32
21.48,25.61,21.73,370.49
25.5,27.59,25.6,231.32
19.24,22.83,19.37,340.79
23.43,28.28,23.64,231.32
22.64,24.04,22.63,245.03
22.73,23.32,22.8,229.16
23.51,28.28,23.92,461.68
22.1,23.32,22.79,238.06
22.73,24.76,22.82,302.61
23.2,26.91,23.23,266.05
22.1,26.17,22.11,340.79
22.05,26.17,22.04,252.46
27.24,28.28,27.28,231.32
26.54,27.59,26.6,231.32
21.91,22.83,22.19,231.32
26.2,27.59,26.31,231.32
20.08,25.0,20.95,311.92
23.43,26.25,23.39,288.17
23.02,24.08,22.92,259.31
25.12,25.5,25.27,231.32
21.97,24.41,22.1,286.96
23.24,26.25,23.13,293.81
20.23,21.26,20.46,242.98
23.71,26.25,23.9,285.48
18.61,20.0,19.02,274.96
24.14,24.21,24.21,225.85
25.87,26.91,25.94,231.32
22.64,24.41,22.69,245.03
23.05,23.85,23.46,231.32
23.38,26.91,23.43,248.98
19.6,22.2,20.23,270.64
20.93,25.5,21.21,225.85
23.11,26.91,23.22,266.05
23.38,24.76,23.43,231.32
20.81,23.43,21.45,285.48
22.1,24.41,22.41,270.64
20.16,20.59,20.26,231.15
22.1,24.76,22.27,257.89
19.8,21.1,19.71,259.31
24.46,26.17,24.76,225.85
20.11,23.02,20.19,290.97
24.08,25.46,24.11,225.85
23.75,28.28,23.99,461.68
23.43,25.5,23.49,302.61
27.24,27.59,27.37,231.32
20.7,23.35,20.95,285.48
21.1,23.6,21.2,231.32
22.67,24.41,22.91,235.6
21.1,21.47,21.47,225.85
19.24,19.7,19.18,259.31
19.83,21.1,19.93,245.03
24.46,26.91,24.48,231.32
23.07,24.76,23.26,235.77
21.4,24.21,22.08,285.48
22.05,25.61,22.59,260.25
23.31,24.41,23.33,231.32
17.85,22.47,18.0,340.79
24.21,24.76,24.26,231.32
20.4,21.93,20.46,245.03
24.46,25.46,24.59,242.98
23.35,24.76,23.27,252.83
22.15,23.6,22.23,241.06
24.84,26.87,24.92,286.96
20.7,23.02,21.01,270.64
19.45,21.93,20.04,286.96
22.05,24.76,22.14,272.53
22.8,24.08,22.76,252.83
24.21,25.61,24.49,244.67
20.62,21.26,20.64,246.22
20.62,22.83,20.61,233.47
21.51,23.85,21.8,270.64
21.26,25.46,21.39,273.68
22.67,24.84,22.72,286.96
19.65,21.54,19.51,256.25
25.54,26.87,25.54,231.32
21.27,22.2,21.25,229.16
22.9,25.5,22.92,272.53
22.39,25.61,22.45,265.68
22.15,23.43,22.24,274.96
21.8,21.95,21.95,225.85
20.84,23.32,21.02,238.06
21.22,21.95,21.31,231.32
20.4,24.21,20.23,233.47
22.74,24.84,22.71,285.48
18.9,20.0,19.03,231.32
23.05,25.5,22.85,229.49
19.85,25.0,19.82,252.83
18.34,23.32,20.5,370.49
20.89,24.08,21.02,257.89
22.67,23.43,22.77,231.32
21.91,24.84,22.1,256.2
21.36,24.41,21.62,257.89
24.14,26.91,24.22,283.99
21.54,21.93,21.45,229.16
23.38,25.46,23.47,231.32
22.34,25.61,22.43,257.89
21.78,24.08,21.92,229.16
22.15,22.67,22.21,231.15
21.51,23.35,21.58,225.85
22.2,24.84,22.3,229.49
26.1,26.91,26.02,229.49
25.11,26.91,25.13,248.52
25.1,26.25,25.26,274.96
25.16,25.61,25.2,231.32
22.83,26.17,23.0,256.27
22.07,23.85,22.27,232.14
25.3,25.61,25.39,231.32
21.05,23.35,21.05,231.32
20.89,22.67,21.04,235.12
19.91,25.5,20.77,311.92
22.21,22.47,22.27,231.15
21.03,23.43,21.07,272.53
18.77,22.67,18.92,231.32
21.97,24.76,22.11,229.49
21.54,21.54,21.54,225.85
22.64,26.25,22.73,274.08
24.91,25.61,24.95,246.22
22.8,22.8,22.8,225.85
21.32,23.02,21.57,225.85
21.97,23.35,22.02,244.67
24.6,25.61,24.68,242.98
23.38,24.76,23.38,231.32
17.07,21.93,18.24,400.41
19.01,23.43,19.05,400.41
18.07,21.4,18.18,432.41
20.02,26.91,20.24,231.32
22.67,26.17,22.9,225.85
23.05,24.84,23.08,225.85
19.68,20.62,19.68,235.77
22.83,25.61,22.83,248.98
23.9,24.41,23.97,231.32
18.68,19.21,18.75,242.98
21.64,23.43,21.75,245.51
21.32,21.93,21.31,238.42
23.41,26.87,23.72,225.85
24.05,24.21,24.21,225.85
23.02,25.0,23.05,235.77
22.02,22.67,22.06,231.32
22.74,24.08,22.88,244.67
25.93,26.91,26.06,241.91
21.91,23.43,21.91,270.64
25.5,27.59,25.59,302.61
25.61,27.59,25.73,302.61
22.34,22.8,22.37,231.32
23.75,26.25,23.95,316.77
22.33,23.6,22.41,259.31
23.01,24.84,23.01,270.64
22.61,23.85,22.77,231.32
17.5,21.54,17.59,263.89
20.11,22.2,20.12,231.32
20.52,22.8,20.43,316.77
25.16,26.17,25.28,242.98
24.17,27.59,24.41,248.98
26.58,27.59,26.6,231.32
23.03,24.04,23.17,242.98
21.8,24.21,21.73,238.06
24.21,26.91,24.3,225.85
19.6,20.12,19.6,229.16
22.05,23.35,22.24,274.96
21.22,21.54,21.54,225.85
25.16,26.17,25.33,242.98
24.41,25.0,24.5,231.32
20.51,23.35,20.59,272.53
22.5,28.28,23.18,373.85
22.9,23.6,22.95,242.98
24.21,24.84,24.16,246.22
22.02,27.59,23.52,340.79
25.16,28.28,25.19,231.32
23.43,27.59,23.56,231.32
20.41,26.91,20.95,231.32
21.01,26.17,21.71,370.49
25.87,27.59,25.96,225.85
25.87,26.87,25.94,231.32
22.73,24.76,23.11,235.77
25.54,26.91,25.99,242.98
26.2,27.59,26.31,231.32
19.0,21.26,19.54,347.41
23.69,26.17,24.14,302.61
20.41,21.54,20.71,242.98
21.71,23.35,21.71,235.77
23.54,26.87,24.12,272.53
22.41,22.63,22.63,225.85
23.94,28.28,23.95,245.03
21.8,23.43,21.91,235.77
23.05,26.87,23.91,225.85
23.75,25.46,23.78,225.85
24.7,25.46,24.59,242.98
21.1,24.08,21.43,272.53
20.16,21.47,20.26,302.61
21.27,25.0,21.53,522.31
24.08,25.5,24.22,231.32
20.59,23.35,21.31,285.48
20.93,22.02,21.46,246.22
22.85,24.84,22.91,235.6
26.2,26.91,26.27,231.32
21.47,25.61,21.86,432.41
19.16,22.83,19.2,262.07
21.1,23.02,21.25,285.48
22.9,24.84,22.96,286.96
21.71,25.61,22.11,522.31
22.39,25.5,22.46,287.33
19.7,23.43,20.01,340.79
21.91,23.85,21.91,235.77
22.21,23.02,22.34,242.98
21.73,25.0,22.26,229.16
22.8,25.5,23.05,347.41
21.97,27.59,22.06,231.32
21.4,22.63,21.77,242.98
21.71,22.2,21.68,238.42
22.67,24.84,22.73,231.32
21.63,26.25,21.53,461.68
24.6,26.25,24.59,243.71
23.75,26.17,24.02,231.32
20.18,22.67,20.59,302.61
22.02,24.41,22.59,270.64
25.5,26.17,25.63,229.16
21.1,22.67,21.16,225.85
19.85,20.52,19.86,231.32
20.25,21.1,20.29,259.31
22.33,23.6,22.24,274.96
22.15,24.21,22.3,270.64
23.05,26.91,23.08,238.06
22.73,26.91,23.23,340.79
22.2,24.76,22.53,229.16
18.79,23.6,19.36,461.68
18.18,21.63,18.34,260.25
26.1,28.28,26.01,231.32
20.7,23.85,20.84,238.06
25.02,28.28,25.02,248.98
24.08,25.46,24.22,231.32
20.62,21.93,20.95,231.32
19.53,23.35,19.59,231.32
24.14,28.28,24.54,402.72
21.26,24.21,21.65,347.41
26.5,27.59,26.74,229.16
22.14,23.02,22.3,225.85
20.52,21.26,20.69,229.16
19.56,22.2,19.94,287.33
23.35,24.76,23.45,231.32
24.6,26.25,24.76,225.85
21.22,22.8,21.36,270.64
19.91,21.1,19.91,235.77
21.51,22.83,21.73,235.77
24.01,26.25,23.9,347.41
19.32,20.02,19.77,231.32
22.02,22.8,22.04,232.14
23.31,26.25,23.14,274.08
21.26,24.84,21.32,225.85
20.3,20.81,20.37,231.32
22.61,25.5,22.8,248.98
23.51,24.08,23.67,231.32
18.87,21.26,18.83,288.17
23.02,24.21,23.11,231.32
23.35,25.46,23.53,286.96
20.52,23.85,20.85,285.48
20.59,21.19,20.99,231.32
23.43,26.25,23.94,285.48
23.72,26.25,23.99,285.48
22.01,24.08,21.95,347.41
24.79,25.5,24.83,231.32
21.54,24.76,21.63,231.32
25.16,26.87,25.19,225.85
22.41,24.76,22.63,347.41
23.58,24.41,23.72,242.98
23.51,23.6,23.6,225.85
23.94,26.91,24.13,232.14
24.42,25.46,24.45,231.32
21.71,27.59,21.77,298.97
24.3,24.84,24.34,246.22
22.2,24.08,22.13,286.96
20.51,21.93,20.59,225.85
24.42,24.76,24.54,231.32
23.71,28.28,23.73,265.71
22.61,26.25,22.83,325.94
24.79,25.61,25.07,231.32
23.07,25.46,23.16,285.48
23.31,25.0,23.24,245.03
23.02,28.28,23.1,373.85
24.08,24.41,24.41,225.85
20.3,28.28,21.59,343.21
18.03,19.7,18.0,244.67
21.57,24.76,21.75,231.32
23.05,28.28,24.43,340.79
23.82,27.59,24.05,225.85
25.16,25.5,25.27,231.32
21.73,27.59,22.02,231.15
21.71,24.08,21.66,231.32
22.83,24.41,23.03,231.15
23.38,26.25,23.52,256.2
21.66,24.41,21.73,232.14
23.38,23.43,23.43,225.85
22.5,25.0,23.18,347.41
22.47,23.6,22.37,252.83
25.16,26.25,25.31,242.98
18.11,19.92,18.39,256.93
23.75,25.5,23.73,225.85
22.67,25.61,23.03,347.41
24.13,26.91,24.03,266.05
20.1,26.25,22.71,400.41
26.58,27.59,26.6,231.32
23.77,26.91,23.93,257.89
21.4,24.04,21.76,285.48
21.71,24.76,21.8,248.98
20.89,23.02,20.99,272.53
19.73,20.88,20.07,316.77
24.79,26.91,24.89,302.61
24.08,24.84,24.18,231.32
24.21,26.91,24.26,229.49
21.97,24.41,22.64,347.41
22.61,26.25,23.32,248.98
22.15,26.25,22.27,229.16
25.87,28.28,25.85,231.32
25.5,26.25,25.59,231.32
23.51,27.59,23.61,229.16
20.62,25.5,21.83,340.79
23.05,25.0,23.25,225.85
20.62,27.59,20.52,290.33
21.63,24.84,21.95,248.98
22.14,23.85,22.26,225.85
23.38,25.5,23.43,286.96
24.3,26.25,24.34,316.77
23.51,26.91,23.68,258.25
23.38,24.76,23.41,252.83
23.05,23.43,23.07,231.32
18.93,22.83,20.14,372.08
22.41,24.21,22.57,243.05
22.59,22.83,22.53,231.15
23.43,25.61,23.9,270.64
24.46,27.59,24.49,231.32
22.39,24.08,22.59,231.32
20.26,21.95,20.34,256.2
24.46,25.0,24.49,238.42
21.71,24.76,21.86,257.89
19.14,20.02,19.34,246.22
22.2,26.25,22.25,238.06
19.1,23.35,19.35,250.34
22.05,23.32,21.92,274.96
20.72,21.93,21.03,235.77
21.36,22.02,21.25,229.16
23.11,28.28,24.63,372.08
22.01,23.32,22.06,243.71
23.51,24.76,23.54,274.96
21.64,22.8,21.71,231.32
22.8,23.85,22.99,229.49
17.9,21.19,18.09,235.12
20.99,22.67,21.35,235.12
23.35,25.5,23.39,286.96
21.71,23.02,22.02,259.31
20.57,22.02,20.57,235.77
22.3,24.04,22.45,225.85
23.72,23.85,23.85,225.85
23.9,24.84,24.05,242.98
21.27,22.47,21.6,274.96
24.04,26.17,24.16,302.61
23.38,26.17,23.39,231.32
23.05,26.17,23.2,266.05
21.71,22.36,21.74,231.32
22.83,26.91,22.83,261.73
23.43,24.21,23.45,232.14
23.31,23.85,23.57,235.6
22.64,22.83,22.68,235.6
18.72,26.87,19.22,242.98
19.68,21.93,20.04,285.48
22.2,24.76,22.49,347.41
23.71,24.41,23.97,231.32
21.4,23.6,21.34,231.32
22.34,26.25,22.51,231.32
21.63,24.76,22.34,285.48
